{
  "version": 1,
  "isRoot": true,
  "tools": {
    "dotnet-grpc": {
      "version": "2.46.0",
      "commands": [
        "dotnet-grpc"
      ]
    },
    "nuke.globaltool": {
      "version": "6.0.3",
      "commands": [
        "nuke"
      ]
    }
  }
}